"","qtde_total_viagens","hora","qtde_vitimas_hora_total","qtde_vitimas_hora_com_infra","qtde_vitimas_hora_sem_infra","prob_acidente_total","prob_acidente_com_infra","prob_acidente_sem_infra"
"1",108929.759665,0,1.66923076923077,0.0153846153846154,1.65384615384615,1.53239185908817e-05,4.81989978354117e-06,1.56410020527228e-05
"2",46908.374662,1,1.26538461538462,0.00384615384615385,1.26153846153846,2.69756653156796e-05,2.79817052292715e-06,2.7705508234675e-05
"3",40347.737301,2,1.26538461538462,0.0115384615384615,1.25384615384615,3.1361972195483e-05,9.75947897239666e-06,3.2014083873995e-05
"4",25496.708762,3,0.911538461538462,0.00384615384615385,0.907692307692308,3.57512206790003e-05,5.14802253431455e-06,3.66750354768513e-05
"5",257036.076685,4,0.542307692307692,0.0230769230769231,0.519230769230769,2.10985048986837e-06,3.06395039055522e-06,2.08104919914328e-06
"6",750766.792567,5,0.415384615384615,0.00384615384615385,0.411538461538462,5.53280485361299e-07,1.7483142908977e-07,5.64704678243477e-07
"7",4142680.800676,6,0.503846153846154,0.00576923076923077,0.503846153846154,1.21623214070448e-07,4.75263377410876e-08,1.25294638357194e-07
"8",3297392.514821,7,0.776923076923077,0.00769230769230769,0.769230769230769,2.35617407824817e-07,7.96129855136501e-08,2.40326693213223e-07
"9",1531839.459216,8,1.19230769230769,0.0192307692307692,1.17307692307692,7.7835029325979e-07,4.28431421021134e-07,7.88913249153914e-07
"10",1061260.34408,9,2.25,0.0307692307692308,2.21923076923077,2.12012067778761e-06,9.89447175632801e-07,2.15425217306109e-06
"11",1063750.916949,10,3.02692307692308,0.05,2.97692307692308,2.84551865356295e-06,1.60408717789243e-06,2.88299358550701e-06
"12",1901365.818395,11,2.55,0.0576923076923077,2.49230769230769,1.34114118142322e-06,1.03550008620984e-06,1.35036752976938e-06
"13",5020529.079326,12,2.00769230769231,0.0115384615384615,1.99615384615385,3.99896559898392e-07,7.84325491499309e-08,4.09600552556347e-07
"14",2510588.112725,13,1.86153846153846,0.0192307692307692,1.84230769230769,7.41475056024997e-07,2.61408134995039e-07,7.55966774292792e-07
"15",1395864.057632,14,2.00384615384615,0.0115384615384615,1.99230769230769,1.43555967566466e-06,2.82099744326755e-07,1.47037902193888e-06
"16",1235673.207618,15,2.20769230769231,0.0230769230769231,2.18461538461538,1.78663120158449e-06,6.37341477253468e-07,1.8213246623573e-06
"17",1963177.674887,16,2.23846153846154,0.0192307692307692,2.21923076923077,1.14022361149272e-06,3.3429890971327e-07,1.16455195658717e-06
"18",3606413.878629,17,2.12307692307692,0.0115384615384615,2.11153846153846,5.88694751774864e-07,1.09186828529672e-07,6.03169595648581e-07
"19",3653910.847252,18,2.40384615384615,0.00384615384615385,2.4,6.57883088651168e-07,3.59225051580956e-08,6.76658132618616e-07
"20",1223130.641123,19,2.24615384615385,0.0192307692307692,2.22692307692308,1.8363973320884e-06,5.36564234614869e-07,1.87563522626225e-06
"21",660376.288041,20,2.56923076923077,0.0192307692307692,2.55,3.89055575700994e-06,9.9380939045378e-07,3.97799946620642e-06
"22",504682.126439,21,2.84230769230769,0.0346153846153846,2.80769230769231,5.6318770636139e-06,2.34071828470324e-06,5.73122684946506e-06
"23",951416.631201,22,2.57692307692308,0.0269230769230769,2.55,2.70851169972734e-06,9.65721418642417e-07,2.76112108530872e-06
"24",408529.970851,23,1.91153846153846,0.00384615384615385,1.90769230769231,4.67906542464088e-06,3.21292538180764e-07,4.81061295307739e-06
